<?xml version="1.0" encoding="utf-8"?>
<svg width="23px" height="20px" viewBox="0 0 23 20" version="1.1" xmlns:xlink="http://www.w3.org/1999/xlink" xmlns="http://www.w3.org/2000/svg">
  <desc>Created with Lunacy</desc>
  <path d="M0.628734 1.52425C-0.31257 1.33696 -0.151261 -0.0270845 0.808417 0.00195878L0.809841 0C0.861908 0.00100247 0.913976 0.00701213 0.965021 0.0190289L3.19471 0.497751C3.4959 0.562847 3.73071 0.794209 3.794 1.09064L4.21973 3.07463C10.2187 3.07763 16.2176 3.07763 22.2165 3.07763C22.7168 3.07763 23.0894 3.53331 22.9812 4.01303L21.2446 11.7036C21.165 12.0561 20.8464 12.3065 20.4789 12.3065L6.29715 12.3065L6.64426 13.8448L19.7835 13.8448C20.8442 13.8298 20.8442 15.3981 19.7835 15.3831L6.01413 15.3831C5.64658 15.3841 5.32806 15.1337 5.24843 14.7812C4.27955 10.4878 3.27905 6.20125 2.36226 1.8968L0.628734 1.52425ZM9.27787 15.8978C8.13239 15.8978 7.18701 16.8252 7.18701 17.9489C7.18701 19.0726 8.13239 20 9.27787 20C10.4233 20 11.3687 19.0726 11.3687 17.9489C11.3687 16.8252 10.4233 15.8978 9.27787 15.8978ZM14.5051 17.9489C14.5051 16.8252 15.4505 15.8978 16.596 15.8978C17.7415 15.8978 18.6868 16.8252 18.6868 17.9489C18.6868 19.0726 17.7415 20 16.596 20C15.4505 20 14.5051 19.0726 14.5051 17.9489Z" id="Fill-1" fill="#FFFFFF" fill-rule="evenodd" stroke="none" />
</svg>