<svg width="23" height="20" viewBox="0 0 23 20" fill="none" xmlns="http://www.w3.org/2000/svg">
<path fill-rule="evenodd" clip-rule="evenodd" d="M0.808417 0.00195878C-0.151261 -0.0270845 -0.31257 1.33696 0.628734 1.52425L2.36226 1.8968C3.27905 6.20125 4.27955 10.4878 5.24843 14.7812C5.32806 15.1337 5.64658 15.3841 6.01413 15.3831H19.7835C20.8442 15.3981 20.8442 13.8298 19.7835 13.8448H6.64426L6.29715 12.3065H20.4789C20.8464 12.3065 21.165 12.0561 21.2446 11.7036L22.9812 4.01303C23.0894 3.53331 22.7168 3.07763 22.2165 3.07763C16.2176 3.07763 10.2187 3.07763 4.21973 3.07463L3.794 1.09064C3.73071 0.794209 3.4959 0.562847 3.19471 0.497751L0.965021 0.0190289C0.913976 0.00701213 0.861908 0.00100247 0.809841 0L0.808417 0.00195878ZM9.27796 15.8978C8.13248 15.8978 7.1871 16.8252 7.1871 17.9489C7.1871 19.0726 8.13248 20 9.27796 20C10.4234 20 11.3688 19.0726 11.3688 17.9489C11.3688 16.8252 10.4234 15.8978 9.27796 15.8978ZM16.596 15.8978C15.4505 15.8978 14.5051 16.8252 14.5051 17.9489C14.5051 19.0726 15.4505 20 16.596 20C17.7414 20 18.6868 19.0726 18.6868 17.9489C18.6868 16.8252 17.7414 15.8978 16.596 15.8978Z" fill="#C3B59B"/>
</svg>
