<?xml version="1.0" encoding="utf-8"?>
<svg width="1440px" height="40px" viewBox="0 0 1440 40" version="1.1" xmlns:xlink="http://www.w3.org/1999/xlink" xmlns="http://www.w3.org/2000/svg">
  <desc>Created with Lunacy</desc>
  <defs>
    <linearGradient x1="0.166628912" y1="0.6638992" x2="1" y2="0.5" id="gradient_1">
      <stop offset="0" stop-color="#212121" stop-opacity="0" />
      <stop offset="1" stop-color="#212121" />
    </linearGradient>
  </defs>
  <path d="M0 0L1440 0L1440 40L0 40L0 0Z" id="Rectangle" fill="url(#gradient_1)" stroke="none" />
</svg>